sampleProportion,accuracy,loss,base-loss,tp,tn,fp,fn
0.10000000000000001,0.7239674229203025,0.27603257707969747,0.27603257707969747,0.0,2489.0,0.0,949.0
0.20000000000000001,0.7270942408376964,0.27290575916230364,0.27290575916230364,0.0,2222.0,0.0,834.0
0.30000000000000004,0.7262528047868362,0.2737471952131638,0.2737471952131638,0.0,1942.0,0.0,732.0
0.40000000000000002,0.731675392670157,0.2683246073298429,0.2683246073298429,0.0,1677.0,0.0,615.0
0.5,0.7272251308900524,0.27277486910994764,0.27277486910994764,0.0,1389.0,0.0,521.0
0.59999999999999998,0.7342931937172775,0.26570680628272253,0.26570680628272253,0.0,1122.0,0.0,406.0
0.70000000000000007,0.7373472949389179,0.262652705061082,0.262652705061082,0.0,845.0,0.0,301.0
0.80000000000000004,0.7185863874345549,0.281413612565445,0.281413612565445,0.0,549.0,0.0,215.0
0.90000000000000002,0.7303664921465969,0.2696335078534031,0.2696335078534031,0.0,279.0,0.0,103.0
